%YAML 1.1
%TAG !u! tag:unity3d.com,2011:
--- !u!1045 &1
EditorBuildSettings:
  m_ObjectHideFlags: 0
  serializedVersion: 2
  m_Scenes:
  - enabled: 1
    path: Assets/Scenes/Menu_Main.unity
    guid: 86022649bc89c834aaf05b06f10ac018
  - enabled: 1
    path: Assets/Scenes/Menu_ZoneSelect.unity
    guid: bff30b5a7d0da9244adaaceabdde45f4
  - enabled: 1
    path: Assets/Scenes/Menu_Z01.unity
    guid: aa8ce843b6fcc5a43901adc85157e8e9
  - enabled: 1
    path: Assets/Scenes/GameLevel_1_1.unity
    guid: e6a589d619e31754aa75216f21a1adbc
  - enabled: 1
    path: Assets/Scenes/GameLevel_1_2.unity
    guid: 41ab88229bdd90a42a9ba2a8b9a8c9ee
  - enabled: 1
    path: Assets/Scenes/GameLevel_1_3.unity
    guid: 8e7aaa2c1c9a1724da52bf6c50bbf056
  - enabled: 1
    path: Assets/Scenes/GameLevel_1_4.unity
    guid: 7871d02ea9b76f444b2015ca2115c839
  - enabled: 1
    path: Assets/Scenes/GameLevel_1_5.unity
    guid: 43288d8233c87644b857e9e92e17bf56
  - enabled: 1
    path: Assets/Scenes/SplashMenu.unity
    guid: 79fa86c2c93aba340b21d8c55a5cf8ed
  - enabled: 1
    path: Assets/Scenes/TutorialMenu.unity
    guid: 4c70f127a7e83d643ba9c93fcce31be0
  - enabled: 1
    path: Assets/Scenes/RelatorioMenu.unity
    guid: d24db0266961df747a7a810e409a0370
  - enabled: 1
    path: Assets/Scenes/DatabaseDebugMenu.unity
    guid: 5c3dd3e511955bb4293fce9399bb0ff5
  m_configObjects: {}
